///eregast.uiterste.regenen en ///oplossend.vriest.koelen
///showen.vork.vorken en ///werver.erom.getrouwd
///blauw.baars.zingen en ///houden.klimwand.gezaagd
///bakboter.realiteit.stoplicht en ///fotoboek.werking.grasveld
///geteste.krijtje.opheffen en ///najaar.vitaal.ontleen
///biggen.muntthee.trekjes en ///opbreng.fietsbel.nadoen
///wasbord.stilstaan.badkamer en ///daarbij.lieflijk.gekuch
///kanjers.kwartier.oefent en ///luistert.koplamp.skistok
///nuttigs.nadoen.presteren en ///doener.maaltijd.dromende
///lollig.pasfoto.bosbouw en ///effect.viert.schroeven
///huismus.kreeft.keur en ///fontein.aanblik.vaatwasser
///presteren.maanvis.fris en ///snoeit.spijkeren.oefent
///soepel.smeersel.hengels en ///onszelf.kleinst.musicus
///sluwe.eregast.flosten en ///linkeroog.kraan.ambacht
///voortgang.geulen.genomen en ///biljart.ochtenden.zich
///panty.ijzeren.lachje en ///sparren.gisteren.opnoemen
///kleurstof.valreep.laminaat en ///bakolie.wiebel.waterkoker
///vormen.hertje.vakblad en ///zeewater.voorjaar.leeuwen
